%YAML 1.1
%TAG !u! tag:unity3d.com,2011:
--- !u!114 &11400000
MonoBehaviour:
  m_ObjectHideFlags: 0
  m_CorrespondingSourceObject: {fileID: 0}
  m_PrefabInstance: {fileID: 0}
  m_PrefabAsset: {fileID: 0}
  m_GameObject: {fileID: 0}
  m_Enabled: 1
  m_EditorHideFlags: 0
  m_Script: {fileID: 11500000, guid: 41cf7725ff854927a5013ef71737e7de, type: 3}
  m_Name: Patrol To Follow
  m_EditorClassIdentifier: 
  invertDecision: 0
  decision: {fileID: 11400000, guid: 522d6781839940445891e2ed35b8d9e5, type: 2}
  nextState: {fileID: 11400000, guid: c35360e3834a7924f8b82180560c2c26, type: 2}
