%YAML 1.1
%TAG !u! tag:unity3d.com,2011:
--- !u!114 &11400000
MonoBehaviour:
  m_ObjectHideFlags: 0
  m_CorrespondingSourceObject: {fileID: 0}
  m_PrefabInstance: {fileID: 0}
  m_PrefabAsset: {fileID: 0}
  m_GameObject: {fileID: 0}
  m_Enabled: 1
  m_EditorHideFlags: 0
  m_Script: {fileID: 11500000, guid: 513c69c14d91408e96b6fad6dfb99c1b, type: 3}
  m_Name: Attack State
  m_EditorClassIdentifier: 
  actions:
  - {fileID: 11400000, guid: d899bad9bae59e74daa285d5a78acf6a, type: 2}
  transitions:
  - {fileID: 11400000, guid: 13b627c8966a36446b7672e75185e1ab, type: 2}
