%YAML 1.1
%TAG !u! tag:unity3d.com,2011:
--- !u!114 &11400000
MonoBehaviour:
  m_ObjectHideFlags: 0
  m_CorrespondingSourceObject: {fileID: 0}
  m_PrefabInstance: {fileID: 0}
  m_PrefabAsset: {fileID: 0}
  m_GameObject: {fileID: 0}
  m_Enabled: 1
  m_EditorHideFlags: 0
  m_Script: {fileID: 11500000, guid: 513c69c14d91408e96b6fad6dfb99c1b, type: 3}
  m_Name: Follow State
  m_EditorClassIdentifier: 
  actions:
  - {fileID: 11400000, guid: 9a81e1b4f7fabb245b17876931f6ed3c, type: 2}
  transitions:
  - {fileID: 11400000, guid: e0e992c6843c0454c8e9c2a9022d64d5, type: 2}
  - {fileID: 11400000, guid: 3c9956799e819e74281cb6689ee421fa, type: 2}
  - {fileID: 11400000, guid: 81a6bcf11cec3e547981021bd566ead3, type: 2}
