%YAML 1.1
%TAG !u! tag:unity3d.com,2011:
--- !u!114 &11400000
MonoBehaviour:
  m_ObjectHideFlags: 0
  m_CorrespondingSourceObject: {fileID: 0}
  m_PrefabInstance: {fileID: 0}
  m_PrefabAsset: {fileID: 0}
  m_GameObject: {fileID: 0}
  m_Enabled: 1
  m_EditorHideFlags: 0
  m_Script: {fileID: 11500000, guid: 513c69c14d91408e96b6fad6dfb99c1b, type: 3}
  m_Name: Patrol State
  m_EditorClassIdentifier: 
  actions:
  - {fileID: 11400000, guid: 8937307fed0fb0a4d948a5600dc586f1, type: 2}
  transitions:
  - {fileID: 11400000, guid: c1c48d4ea57fbdd4baafb3cb433b0bf6, type: 2}
  - {fileID: 11400000, guid: c99a65c0fb77f1145a8bc36ee05bd6d1, type: 2}
